<svg viewBox="0 0 2 2" width="2px" height="2px" 
    xmlns="http://www.w3.org/2000/svg">
    <rect x="0" y="0" width="100%" height="100%" fill="#f0f6f0" />

    <rect x="0" y="0" width="50%" height="50%" fill="#222323" />
    <rect x="1" y="1" width="50%" height="50%" fill="#222323" />
</svg>